{
    "chapters" : [
        {
            "chapterName" : "[Chapter 1] Implement and manipulate document structures and objects",
            "subchapters" : [
                {
                    "subchapterName" : "[Chapter 1.1] Create the document structure",
                    "questions" : [
                        {
                            "question" : "Which of the following elements aren't introduced in HTML5?",
                            "answers" : [
                                "<article>",
                                "<footer>",
                                "<hgroup>",
                                "<input>"
                            ],
                            "correctAnswer" : "D",
                            "explanations" : [
                                "Incorrect: The <article> element is a new HTML5 semantic element.",
                                "Incorrect: The <footer> element is a new HTML5 semantic element.",
                                "Incorrect: The <hgroup> element is a new HTML semantic element.",
                                "Correct: The <input> element isn't new in HTML5. However, new input types have been introduced to the specification."
                            ]
                        },
                        {
                            "question" : "Which element(s) does the <hgroup> element contain?",
                            "answers" : [
                                "<h1> to <h6>",
                                "<header>",
                                "<nav>",
                                "All of the above"
                            ],
                            "correctAnswer" : "A",
                            "explanations" : [
                                "Correct: The <hgroup> element is expected to contain any or all of the <h1> to <h6> elements",
                                "Incorrect: The <header> element is used separately to define the header section of an <article> element or a <section> element.",
                                "Incorrect: The <nav> element is used to define a menu structure. It wouldn't be included inside an <hgroup> element.",
                                "Incorrect: The <hgroup> element is expected to contain only the <h1> to <h6> elements."
                            ]
                        },
                        {
                            "question" : "Which HTML5 element would you use to organize content so that the page maximizes a search engine's algorithm?",
                            "answers" : [
                                "<div id=\"CompanyNews\">",
                                "<header>Company News</header>",
                                "<article>Company News</article>",
                                "All of the above"
                            ],
                            "correctAnswer" : "C",
                            "explanations" : [
                                "Incorrect: The <div> element doesn't provide any additional context to a search engine.",
                                "Incorrect: The <header> element is contaiend inside an <article> element and will help, but isn't the main element to provide search engine optimization.",
                                "Correct: The <article> element tells the search engine that specific content in this area is relevant to what users are searching for. This element provides for the best search engine optimization.",
                                "Incorrect: The <article> element is specifically used for SEO."
                            ]
                        },
                        {
                            "question" : "Which HTML5 element should you use to create a more structured layout?",
                            "answers" : [
                                "<div>",
                                "<p>",
                                "<table>",
                                "<form>"
                            ],
                            "correctAnswer" : "C",
                            "explanations" : [
                                "Incorrect: <div> elements flow left to right and top to bottom and don't provide any structure.",
                                "Incorrect: The <p> element denotes a paragraph. This element doesn't provide any layout structure to the page.",
                                "Correct: You use the <table> element to provide a structed layout, using its rows and columns elements as needed to create the desired layout.",
                                "Incorrect: The <form> element is used to denote an area where th user can submit data. The <form> element doesn't provide any mechanism to control layout."
                            ]
                        }
                    ]
                },
                {
                    "subchapterName" : "[Chapter 1.2] Write code that interacts with UI controls",
                    "questions" : [
                        {
                            "question" : "Which of the following JavaScript methods can't be used to select an element in the DOM?",
                            "answers" : [
                                "getElementById",
                                "querySelector",
                                "getElementByClassName",
                                "queryAll"
                            ],
                            "correctAnswer" : "D",
                            "explanations" : [
                                "Incorrect: The getElementById method retrieves an element by its unique id",
                                "Incorrect: The querySelector method retrieves a single element that matches the specified selector.",
                                "Incorrect: The getElementsByClassName method retrieves all the elements that have the specified CSS class assigned to them.",
                                "Correct: The queryAll method isn’t available to search the DOM."
                            ]
                        },
                        {
                            "question" : "Which line of JavaScript successfully retrieves only the image element with the ID 'myDog' from the following HTML? Choose all that apply.",
                            "multipleChoice" : true,
                            "code" : [
                                "<form>",
                                "    <div id=\"main\" class=\"mainStyle\">",
                                "        <p id=\"dogs\">",
                                "            This is a webpage about dogs. Here is my dog picture:",
                                "            <img src=\"dog.jpg\" id=\"myDog\" class=\"thumb\"/>",
                                "            Here is a picture of my friend's dog:",
                                "            <img src=\"dog.jpg\" id=\"myfriendsDog\" class=\"thumb\"/>",
                                "        </p>",
                                "    </div>",
                                "</form>"
                            ],
                            "answers" : [
                                "document.getElementById(\"myDog\");",
                                "<p>.getChildNode(\"img\");",
                                "document.getElementById(\"dogs\").querySelector(\"thumb\");",
                                "document.querySelectorAll(\"thumb\");"
                            ],
                            "correctAnswer" : "A",
                            "explanations" : [
                                "Correct: document.getElementbyId(\"myDog\"); retrieves only the single image with the ID myDog.",
                                "Incorrect: <p>.getChildNode(\"img\"); isn’t a valid syntax. ",
                                "Incorrect: document.getElementbyId(\"dogs\").querySelector (\"thumb\"); fails because the page has no element named \"dogs\"",
                                "Incorrect: document.querySelector.querySelectorAll(\"thumb\"); is incorrect because it returns all the elements on the page with the specified class name."
                            ]
                        },
                        {
                            "question" : "To hide an element in the DOM and still be able to add it back later, what should you do?",
                            "answers" : [
                                "Nothing, because the DOM is always availabel in a static form.",
                                "Keep a reference to the remoevd node to be able to add it back.",
                                "Call the 'document.restoreNodes' method.",
                                "You can't add an element back after it's removed."
                            ],
                            "correctAnswer" : "B",
                            "explanations" : [
                                "Incorrect: The DOM is dynamic and changes physically when items are removed from it.",
                                "Correct: When an element is removed and needed again, a reference to the removed node must be kept to be able to add it back.",
                                "Incorrect: No such method exists.",
                                "Incorrect: A node can be added back to the DOM if a reference was kept. This is accomplished by using the various methods available to insert nodes in the DOM."
                            ]
                        },
                        {
                            "question" : "When implementing the HTML5 video element, how do you ensure that the rendering of the element can function in different browsers?",
                            "answers" : [
                                "You need to do nothing, because HTML5 is now a standard specification.",
                                "Specify all the source video types in the src attribute of the video element.",
                                "Include the <source> element for each video type so that each browser can play the version that it supports.",
                                "Include the <object> element for each video type so that the browser can play the version that it supports"
                            ],
                            "correctAnswer" : "C",
                            "explanations" : [
                                "Incorrect: Different browsers support different media formats. Use the <source> element to provide the media in the various formats",
                                "Incorrect: The src attribute allows you to specify only one source video. This doesn’t work across multiple browsers unless the video format is supported across the browsers.",
                                "Correct: The <source> elements specify multiple video formats so that the browser can choose the correct one",
                                "Incorrect: The <object> element is supported to provide a fallback mechanism in the event that the browser doesn’t support the HTML5 <video> element."
                            ]
                        },
                        {
                            "question" : "When drawing on the HTML5 <canvas> element, what method is used on the context to begin drawing at a new point?",
                            "answers" : [
                                "moveTo",
                                "lineAt",
                                "beginPath",
                                "stroke"
                            ],
                            "correctAnswer" : "C",
                            "explanations" : [
                                "Incorrect: The moveTo method moves the current context to a new point but doesn’t begin a drawing",
                                "Incorrect: The lineAt method draws a line within the current positional context.",
                                "Correct: The beginPath method tells the context to start a new drawing from its current point.",
                                "Incorrect: The stroke method tells the context to draw the graphics that are applied to the context"
                            ]
                        },
                        {
                            "question" : "When performance is critical for an HTML5 graphics application, what should you use?",
                            "answers" : [
                                "<canvas> using a declarative syntax to create the graphics",
                                "<svg> using a declarative syntax to create the graphics",
                                "<canvas> using JavaScript to create the graphics",
                                "<svg> and <canvas> combination to leverage the best performance of both"
                            ],
                            "correctAnswer" : "C",
                            "explanations" : [
                                "Incorrect: The <canvas> element doesn’t support any declarative elements",
                                "Incorrect: The <svg> element has poorer performance than the <canvas> element when a lot of graphic refresh is required.",
                                "Correct: The <canvas> element provides superior performance compared to the <svg> element.",
                                "Incorrect: The <canvas> and <svg> elements combined don’t provide better performance. The <canvas> element provides superior performance when the graphics require a lot of refreshing."
                            ]
                        }
                    ]
                },
                {
                    "subchapterName" : "[Chapter 1.3] Apply styling to HTML elements programmatically",
                    "questions" : [
                        {
                            "question" : "Absolute positioning positions an object relative to what?",
                            "answers" : [
                                "The top-left corner of the browser window",
                                "The top-left corner of its parent element.",
                                "Centered inside the window.",
                                "Centered inside its parent element."
                            ],
                            "correctAnswer" : "B",
                            "explanations" : [
                                "Incorrect: The element isn’t positioned relative to the browser window",
                                "Correct: Absolute positioning positions the element relative to its parent element.",
                                "Incorrect: The element doesn’t center within the window",
                                "Incorrect: Absolute positioning doesn’t center an element."
                            ]
                        },
                        {
                            "question" : "Which transformation enables you to change the size of an element?",
                            "answers" : [
                                "rotate",
                                "skew",
                                "translate",
                                "scale"
                            ],
                            "correctAnswer" : "D",
                            "explanations" : [
                                "Incorrect: The rotate transform spins an object clockwise or counterclockwise",
                                "Incorrect: The skew transform slants an object.",
                                "Incorrect: The translate transform moves an object.",
                                "Correct: The scale transform changes the size of an object."
                            ]
                        },
                        {
                            "question" : "Which syntax preserves the layout of the page when hiding an element in the DOM?",
                            "answers" : [
                                "display='hidden'",
                                "display='inline'",
                                "visibility='none'",
                                "visibility='hidden'"
                            ],
                            "correctAnswer" : "D",
                            "explanations" : [
                                "Incorrect: Display=’hidden’ isn’t a valid option.",
                                "Incorrect: Display=’inline’ shows an object that previously wasn’t showing.",
                                "Incorrect: Visibility=’none’ isn’t a valid option.",
                                "Correct: Visibility=’hidden’ hides an element, and its surrounding elements remain in place as though the element was still there."
                            ]
                        }
                    ]
                },
                {
                    "subchapterName" : "[Chapter 1.4] Implement HTML4 APIs",
                    "questions" : [
                        {
                            "question" : "When using the Web Storage API, where should you store data to ensure that it’s cleared when the user closes the browser?",
                            "answers" : [
                                "localStorage",
                                "cookieStorage",
                                "sessionStorage",
                                "A hidden input element"
                            ],
                            "correctAnswer" : "C",
                            "explanations" : [
                                "Incorrect: localStorage is persistent even after the session closes.",
                                "Incorrect: cookieStorage doesn’t exist in the Web Storage API.",
                                "Correct: sessionStorage clears when the session closes.",
                                "Incorrect: A hidden input element isn’t a valid solution to meet the requirement."
                            ]
                        },
                        {
                            "question" : "What do you need to do to designate a page as available offline?",
                            "answers" : [
                                "Specify in JavaScript as document.offLine=true.",
                                "Specify the manifest attribute on the form element.",
                                "Specify the manifest attribute on the HTML element.",
                                "Tell users to switch to offline mode using their browser. No code is required."
                            ],
                            "correctAnswer" : "C",
                            "explanations" : [
                                "Incorrect: The offLine property isn’t a valid JavaScript option.",
                                "Incorrect: You wouldn’t specify the manifest on the <form> element",
                                "Correct: Specifying the manifest attribute on the HTML element is the correct action.",
                                "Incorrect: The browser’s offline option doesn’t invoke the AppCache API."
                            ]
                        },
                        {
                            "question" : "Which of the following aren’t valid sections of the AppCache manifest?",
                            "answers" : [
                                "Cache manifest",
                                "Session manifest",
                                "Network manifest",
                                "Fallback manifest"
                            ],
                            "correctAnswer" : "B",
                            "explanations" : [
                                "Incorrect: Cache manifest lists all resources that must be cached offline.",
                                "Correct: Session manifest isn’t a valid option.",
                                "Incorrect: Network manifest specifies any resources that must be available from the Internet.",
                                "Incorrect: Fallback manifest enables you to tell the browser what to do when resources aren’t available offline."
                            ]
                        },
                        {
                            "question" : "Which event is fired by the AppCache object when the cache download is complete?",
                            "answers" : [
                                "oncached",
                                "onupdateready",
                                "ondownloading",
                                "onchecking"
                            ],
                            "correctAnswer" : "A",
                            "explanations" : [
                                "Correct: The oncached event is fired when the download completes",
                                "Incorrect: The onupdateready event is fired when items in the manifest are newly downloaded and the swapCache method can be called.",
                                "Incorrect: The ondownloading event is fired when the browser is downloading.",
                                "Incorrect: The onchecking event is fired when the browser is checking for updates."
                            ]
                        },
                        {
                            "question" : "When using the Geolocation API, how do you configure the ability to use cached data?",
                            "answers" : [
                                "Set the enableCache property to true on the PositionOptions object.",
                                "Set the maximumAge property to a non-zero value on the PositionOptions object.",
                                "Set the timeout property of the PositionOptions object.",
                                "Using the cache is always on to save bandwidth, so no configuration is required."
                            ],
                            "correctAnswer" : "B",
                            "explanations" : [
                                "Incorrect: The enableCache property doesn’t exist.",
                                "Correct: Set the maximumAge property to a non-zero value on the PositionOptions object.",
                                "Incorrect: The timeout property specifies how long to wait for a response before firing the timeout event.",
                                "Incorrect: The cache maximumAge defaults to 0, so caching is off by default."
                            ]
                        }
                    ]
                },
                {
                    "subchapterName" : "[Chapter 1.5] Establish the scope of objects and variables",
                    "questions" : [
                        {
                            "question" : "In JavaScript, how do you determine the scope of a variable?",
                            "answers" : [
                                "The scope of a variable is global within the context of the page.",
                                "The scope of a variable depends on where inside the script it’s declared.",
                                "The scope of a variable changes depending on the type it represents."
                            ],
                            "correctAnswer" : "B",
                            "explanations" : [
                                "Incorrect: Variables are global only if declared in the global space.",
                                "Correct: The scope of a variable depends on where inside the script it’s declared.",
                                "Incorrect: A variable’s type doesn’t affect its scope"
                            ]
                        },
                        {
                            "question" : "Why is it important to avoid creating custom JavaScript objects in the global namespace?",
                            "answers" : [
                                "The global namespace is reserved for the browser.",
                                "The global namespace is available to all applications in the session, and using it could result in a naming conflict.",
                                "The global namespace creates a security risk to users’ systems."
                            ],
                            "correctAnswer" : "B",
                            "explanations" : [
                                "Incorrect: The global namespace isn’t reserved for the browser",
                                "Correct: Because the global namespace is available to all applications in the session, using it could result in a naming conflict.",
                                "Incorrect: The global namespace doesn’t create a security risk to the user’s system."
                            ]
                        },
                        {
                            "question" : "What JavaScript keyword in an event handler can be easily used to reference the object that raised the event?",
                            "answers" : [
                                "The it keyword provides a reference to the object.",
                                "The document.current property provides a reference to the object.",
                                "The this keyword provides a reference to the object",
                                "No way is available other than to use a selector query to retrieve the object from the DOM."
                            ],
                            "correctAnswer" : "C",
                            "explanations" : [
                                "Incorrect: The it keyword doesn’t exist.",
                                "Incorrect: The document.current keyword doesn’t provide the reference.",
                                "Correct: The this keyword provides a reference to the object.",
                                "Incorrect: The this keyword provides a direct shortcut to the element that raised the event."
                            ]
                        }
                    ]
                },
                {
                    "subchapterName" : "[Chapter 1.6] Create and implement objects and methods",
                    "questions" : [
                        {
                            "question" : "In JavaScript, which of the following isn’t a native object?",
                            "answers" : [
                                "Function",
                                "Array",
                                "Integer",
                                "Person"
                            ],
                            "correctAnswer" : "D",
                            "explanations" : [
                                "Incorrect: Functions are objects in JavaScript",
                                "Incorrect: Arrays are objects in JavaScript.",
                                "Incorrect: Integers are objects in JavaScript.",
                                "Correct: People aren’t native JavaScript objects."
                            ]
                        },
                        {
                            "question" : "Which of the following snippets shows the correct way to create a custom book object?",
                            "answers" : [
                                "var book = \"Title: 'My book about things'\" + \"Author: 'Jane Doe'\" + \" Pages: 400\";",
                                "var book = {Title: \"My book about things\", Author: \"Jane Doe\", Pages: 400};",
                                "var book = (Title= \"My book about things\", Author= \"Jane Doe\"= Pages: 400);",
                                "var book = new {Title: \"My book about things\", Author: \"Jane Doe\", Pages: 400};"
                            ],
                            "correctAnswer" : "B",
                            "explanations" : [
                                "Incorrect: This code segment produces a string.",
                                "Correct: This code segment creates a dynamic object.",
                                "Incorrect: This segment is incorrect because (..) was used instead of {}, along with = instead of :.",
                                "Incorrect: The new keyword isn’t used when creating a dynamic object."
                            ]
                        },
                        {
                            "question" : "Inheritance is accomplished in JavaScript through the use of which construct?",
                            "answers" : [
                                "inherits keyword",
                                "implements keyword",
                                "this keyword",
                                "Prototypes"
                            ],
                            "correctAnswer" : "D",
                            "explanations" : [
                                "Incorrect: The inherits keyword isn’t a JavaScript construct.",
                                "Incorrect: The implements keyword isn’t a JavaScript construct.",
                                "Incorrect: The this keyword doesn’t provide inheritance.",
                                "Correct: Prototypes are used to create inheritance trees in JavaScript."
                            ]
                        }
                    ]
                }
            ]
        },
        {
            "chapterName" : "[Chapter 2] Implement program flow",
            "subchapters" : [
                {
                    "subchapterName" : "[Chapter 2.1] Implement program flow",
                    "questions" : [
                        {
                            "question" : "Which of the following keywords provide iterative control flow?",
                            "answers" : [
                                "if statement",
                                "switch statement",
                                "for",
                                "break"
                            ],
                            "correctAnswer" : "C",
                            "explanations" : [
                                "Incorrect: The if statement provides branch flow control.",
                                "Incorrect: The switch statement provides branch flow control",
                                "Correct: The for loop provides iterative flow control.",
                                "Incorrect: The break keyword is used to exit an iterative control block such as a for or while loop"
                            ]
                        },
                        {
                            "question" : "Which of the following array methods combines two arrays?",
                            "answers" : [
                                "join",
                                "combine",
                                "split",
                                "concat"
                            ],
                            "correctAnswer" : "D",
                            "explanations" : [
                                "Incorrect: The join method joins all the elements of an array into a string.",
                                "Incorrect: combine isn’t a valid method.",
                                "Incorrect: The split method is used to split a string into an array of substrings.",
                                "Correct: The concat method combines the elements of two arrays into one array."
                            ]
                        },
                        {
                            "question" : "Which iterative control syntax can guarantee that the loop is processed at least once?",
                            "answers" : [
                                "for…in loop",
                                "while loop",
                                "do…while loop",
                                "for loop"
                            ],
                            "correctAnswer" : "C",
                            "explanations" : [
                                "Incorrect: The for…in loop runs only if the target list contains at least on element.",
                                "Incorrect: The while loop runs only if the Boolean condition evaluates to true.",
                                "Correct: The do…while loop runs a Boolean condition after it runs once.",
                                "Incorrect: The for loop runs only if the values specified in the conditions are true."
                            ]
                        },
                        {
                            "question" : "Which keyword is used to exit a loop?",
                            "answers" : [
                                "continue",
                                "break",
                                "stop",
                                "next"
                            ],
                            "correctAnswer" : "B",
                            "explanations" : [
                                "Incorrect: The continue keyword exits the current iteration but continues to the next iteration if the conditional values are still true.",
                                "Correct: The break keyword exits an iterative control loop.",
                                "Incorrect: stop isn’t a valid statement.",
                                "Incorrect: next isn’t a valid statement."
                            ]
                        }
                    ]
                },
                {
                    "subchapterName" : "[Chapter 2.2] Raise and handle an event",
                    "questions" : [
                        {
                            "question" : "Which of the following isn’t a supported way to add an event handler to a DOM element?",
                            "answers" : [
                                "Declaring within the HTML element by assigning the event attribute to a JavaScript function",
                                "Setting the attribute in CSS to a valid JavaScript function",
                                "Dynamically through JavaScript by assigning a JavaScript function to the object's event property",
                                "Dynamically through JavaScript via the assign/remove event listener methods"
                            ],
                            "correctAnswer" : "B",
                            "explanations" : [
                                "Incorrect: This is a valid method.",
                                "Correct: CSS doesn’t provide a way to assign events handlers.",
                                "Incorrect: This is a valid method.",
                                "Incorrect: This is a valid method."
                            ]
                        },
                        {
                            "question" : "Which of the following isn’t an attribute of an anonymous function?",
                            "answers" : [
                                "Anonymous functions can’t be called by any other code.",
                                "Anonymous functions have a clearly defined name.",
                                "Anonymous functions can be passed as parameters.",
                                "Anonymous functions can’t be assigned to a DOM element declaratively"
                            ],
                            "correctAnswer" : "D",
                            "explanations" : [
                                "Incorrect: Anonymous functions can’t be called.",
                                "Incorrect: Anonymous functions don’t have a name.",
                                "Incorrect: Anonymous functions can be passed as parameters.",
                                "Correct: Anonymous functions can’t be assigned to a DOM element declaratively."
                            ]
                        },
                        {
                            "question" : "Which code line would successfully cancel an event?",
                            "answers" : [
                                "window.event.returnValue = false;",
                                "return false;",
                                "window.event.Return();",
                                "window.Stop();"
                            ],
                            "correctAnswer" : "A",
                            "explanations" : [
                                "Correct: window.event.returnValue = false; cancels the event.",
                                "Incorrect: return false; doesn’t cancel the event.",
                                "Incorrect: window.event.Return(); isn’t valid.",
                                "Incorrect: window.stop(); isn’t valid"
                            ]
                        },
                        {
                            "question" : "Which event occurs when a DOM element receives the cursor?",
                            "answers" : [
                                "focus",
                                "change",
                                "keydown",
                                "mouseleave"
                            ],
                            "correctAnswer" : "A",
                            "explanations" : [
                                "Correct: The focus event fires when an element receives the focus.",
                                "Incorrect: The change event fires when the value of an element is changed.",
                                "Incorrect: The keydown event fires when a keyboard key is pressed down.",
                                "Incorrect: The mouseleave event fires when the mouse pointer leaves the area of an element."
                            ]
                        },
                        {
                            "question" : "[This question is missing an answer] Which option provides the correct sequence of events in a drag-and-drop operation?",
                            "answers" : [
                                "dragstart, drag, dragenter, drop",
                                "dragstart, drag, dragenter, dragstop",
                                "drag, dragstart, drop, dragenter",
                                "drag, dragstart, dragenter, dragstop"
                            ],
                            "correctAnswer" : "0",
                            "explanations" : [
                                "Error: Missing explanation",
                                "Error: Missing explanation",
                                "Error: Missing explanation",
                                "Error: Missing explanation"
                            ]
                        }
                    ]
                },
                {
                    "subchapterName" : "[Chapter 2.3] Implement exception handling",
                    "questions" : [
                        {
                            "question" : "Which statement correctly describes the proper error handling using try…catch…finally blocks?",
                            "answers" : [
                                "Proper error handling allows code processing to continue and to provide appropriate user feedback.",
                                "Proper error handling allows users to fix problems with the webpage.",
                                "Proper error handling allows you to debug the application at run time.",
                                "Proper error handling allows you to suppress all the bugs in your scripts."
                            ],
                            "correctAnswer" : "A",
                            "explanations" : [
                                "Correct: By using structured error handling, you can provide feedback to users and handle unknown situations properly.",
                                "Incorrect: Proper error handling allows users to fix problems with the webpage.",
                                "Incorrect: Proper error handling allows you to debug the application at run time.",
                                "Incorrect: Proper error handling allows you to suppress all the bugs in your scripts."
                            ]
                        },
                        {
                            "question" : "Which of the following isn’t a property of the exception object?",
                            "answers" : [
                                "message",
                                "description",
                                "number",
                                "name"
                            ],
                            "correctAnswer" : "B",
                            "explanations" : [
                                "Incorrect: message is a valid property that gives the textual description of the error.",
                                "Correct: description isn’t a valid property.",
                                "Incorrect: The number property provides the number associated with the error.",
                                "Incorrect: The name property provides the name of the exception object."
                            ]
                        },
                        {
                            "question" : "Why is checking for null a good practice?",
                            "answers" : [
                                "Checking for null prevents the use of an object before it’s initialized.",
                                "Checking for null prevents errors resulting in NaN.",
                                "Checking for null prevents the need to throw custom errors."
                            ],
                            "correctAnswer" : "A",
                            "explanations" : [
                                "Correct: Checking for null prevents the use of an object before it initializes and prevents unexpected results.",
                                "Incorrect: NaN is a different construct than null.",
                                "Incorrect: Custom errors aren’t related to checking for null. Throwing a custom error can be used in many different scenarios."
                            ]
                        }
                    ]
                },
                {
                    "subchapterName" : "[Chapter 2.4] Implement a callback",
                    "questions" : [
                        {
                            "question" : "Which of the following is a valid WebSocket instantiation?",
                            "answers" : [
                                "wsConnection = new WebSocket(‘http://studygroup.70480.com’);",
                                "wsConnection = new WebSocket(‘tcp://studygroup.70480.com’,[‘soap’,’xmpp’]);",
                                "wsConnection = new WebSocket(‘wss://studygroup.70480.com’,[‘soap’,’xmpp’]);",
                                "wsConnection = new WebSocket(‘ftp://studygroup.70480.com’,[‘soap’,’xmpp’]);"
                            ],
                            "correctAnswer" : "C",
                            "explanations" : [
                                "Incorrect: http isn’t a valid WebSocket protocol.",
                                "Incorrect: tcp isn’t a valid WebSocket protocol.",
                                "Correct: wss or ws is a valid protocol to create a WebSocket.",
                                "Incorrect: ftp isn’t a valid WebSocket protocol."
                            ]
                        },
                        {
                            "question" : "Which of the following statements properly handles the reception of data from a WebSocket?",
                            "answers" : [
                                "wsConnection.onpost = function(msg){..};",
                                "wsConneciton.onreceive = function(msg){...};",
                                "wsConnection.onmessage = function(msg){...};",
                                "wsConnection.ongetdata = function(msg){...};"
                            ],
                            "correctAnswer" : "C",
                            "explanations" : [
                                "Incorrect: wsConnection.onpost isn’t a method.",
                                "Incorrect: wsConneciton.onreceive isn’t a method.",
                                "Correct: wsConnection.onmessage receives the resulting data.",
                                "Incorrect: wsConnection.ongetdata isn’t a method"
                            ]
                        },
                        {
                            "question" : "Which list identifies the properties that need to be set up to make an AJAX call?",
                            "answers" : [
                                "cache, datatype, success",
                                "url, cache, datatype, success",
                                "url, datatype, onsuccess",
                                "url, datatype, oncomplete"
                            ],
                            "correctAnswer" : "C",
                            "explanations" : [
                                "Incorrect: cache isn’t required.",
                                "Incorrect: cache isn’t required.",
                                "Correct: url, datatype, and onsuccess are required.",
                                "Incorrect: oncomplete isn’t a property."
                            ]
                        },
                        {
                            "question" : "Why is wiring up events with jQuery easier?",
                            "answers" : [
                                "It allows you to assign the event listener to many elements at once via the selector syntax.",
                                "There is no difference wiring up events with jQuery versus addEventListener method.",
                                "jQuery works more efficiently in a loop.",
                                "jQuery allows both named and anonymous functions to be used as event listeners."
                            ],
                            "correctAnswer" : "A",
                            "explanations" : [
                                "Correct: Wiring up events with jQuery allows you to assign the event listener to many elements at once by using the selector syntax.",
                                "Incorrect: jQuery provides much more flexibility.",
                                "Incorrect: jQuery doesn’t work differently inside a loop.",
                                "Incorrect: This isn’t unique to jQuery."
                            ]
                        }
                    ]
                },
                {
                    "subchapterName" : "[Chapter 2.5] Create a web worker process",
                    "questions" : [
                        {
                            "question" : "Which of the following isn’t a valid web worker operation?",
                            "answers" : [
                                "postMessage",
                                "onmessage",
                                "close",
                                "terminate"
                            ],
                            "correctAnswer" : "C",
                            "explanations" : [
                                "Incorrect: postMessage initiates the script to run in the worker.",
                                "Incorrect: onmessage is the event handler used to receive the messages across the worker boundaries.",
                                "Correct: close isn’t a method on the web worker.",
                                "Incorrect: terminate is used to cancel a web worker."
                            ]
                        },
                        {
                            "question" : "Which method cancels a web worker?",
                            "answers" : [
                                "close",
                                "terminate",
                                "suspend",
                                "sleep"
                            ],
                            "correctAnswer" : "B",
                            "explanations" : [
                                "Incorrect: close doesn’t cancel a web worker.",
                                "Correct: terminate cancels a web worker.",
                                "Incorrect: suspend isn’t a valid method",
                                "Incorrect: sleep isn’t a valid method."
                            ]
                        },
                        {
                            "question" : "Where must you place the JavaScript code to run in the context of a web worker?",
                            "answers" : [
                                "Between the <head></head> elements",
                                "In any <script> block in the page",
                                "In its own JavaScript file",
                                "As a dynamic function assigned to the self.worker"
                            ],
                            "correctAnswer" : "C",
                            "explanations" : [
                                "Incorrect: The code must be in its own file.",
                                "Incorrect: The code can’t be inside a <script> block.",
                                "Correct: The code must be in its own JavaScript file, and the name of the file is passed to the web worker as a parameter.",
                                "Incorrect: There is no such property as self.worker."
                            ]
                        },
                        {
                            "question" : "How many web workers/subworkers can run concurrently?",
                            "answers" : [
                                "A multiple of four web workers including subworkers, per processor",
                                "16 workers by default, but you can change that number via self.configuration",
                                "A limitless number of workers",
                                "A limit of eight workers, each with a maximum of eight subworkers"
                            ],
                            "correctAnswer" : "C",
                            "explanations" : [
                                "Incorrect: There is a limit associated with processors.",
                                "Incorrect: There is no such property as self.configuration.",
                                "Correct: There is no limit on the number of workers that can be created. However, too many will result in performance issues.",
                                "Incorrect: There is no such limitation."
                            ]
                        },
                        {
                            "question" : "To have a script run continually every 30 seconds, which line of code should be used?",
                            "answers" : [
                                "wsConnection.repeatWork(“workerFile.js”,30000);",
                                "setTimeout(function(){ worker.postMessage(“”);}, 30000);",
                                "setTimeout( worker.postMessage(“”), 30000);",
                                "setInterval(function(){ worker.postMessage(“”);}, 30000);"
                            ],
                            "correctAnswer" : "D",
                            "explanations" : [
                                "Incorrect: wsConnection.repeatWork(“workerFile.js”,30000); isn’t valid code.",
                                "Incorrect: setTimeout(function(){ worker.postMessage(“”);}, 30000); delays for 30 seconds before running the anonymous function once.",
                                "Incorrect: In setTimeout( worker.postMessage(“”), 30000);, setTimeout waits for the specified delay before running the passed-in function. In this case, the parameter isn’t a function.",
                                "Correct: setInterval(function(){ worker.postMessage(“”);}, 30000); calls the passed-in function every interval as specified by the second parameter in milliseconds."
                            ]
                        }
                    ]
                }
            ]
        },
        {
            "chapterName" : "[Chapter 3] Access and secure data",
            "subchapters" : [
                {
                    "subchapterName" : "[Chapter 3.1] Validate user input by using HTML elements",
                    "questions" : [
                        {
                            "question" : "Which input control is better suited for allowing users to make multiple selections?",
                            "answers" : [
                                "radio button",
                                "textarea",
                                "checkbox",
                                "radio or checkbox"
                            ],
                            "correctAnswer" : "C",
                            "explanations" : [
                                "Incorrect: A radio button is suited for allowing a single selection.",
                                "Incorrect: A text area is suited for a multi-line text box.",
                                "Correct: Check boxes allow multiple selections.",
                                "Incorrect: A radio button doesn’t allow more than one selection."
                            ]
                        },
                        {
                            "question" : "Which input control is designed to allow users to enter secure information in a way that keeps others from seeing what’s typed?",
                            "answers" : [
                                "text",
                                "textarea",
                                "url",
                                "password"
                            ],
                            "correctAnswer" : "D",
                            "explanations" : [
                                "Incorrect: A text box allows data entry but is plainly visible.",
                                "Incorrect: A text area allows data entry but is plainly visible.",
                                "Incorrect: url is a type of text box with special validation rules.",
                                "Correct: A password input type hides the characters being entered."
                            ]
                        },
                        {
                            "question" : "Which input control posts form data to a server?",
                            "answers" : [
                                "button",
                                "Submit",
                                "Reset",
                                "radio"
                            ],
                            "correctAnswer" : "B",
                            "explanations" : [
                                "Incorrect: A button is generic and must have an event handler to perform custom logic.",
                                "Correct: The submit button invokes the forms submit action.",
                                "Incorrect: The reset button clears all input fields on the form.",
                                "Incorrect: A radio button is used for a selection list."
                            ]
                        },
                        {
                            "question" : "Which of the following declarations are valid ways to make a text control non-editable?",
                            "answers" : [
                                "<input type=”text” edit=”false”/>",
                                "<input type=”text” editable=”false”/>",
                                "<input type=”text” readonly=”yes”/>",
                                "<input type=”text” readonly/>"
                            ],
                            "correctAnswer" : "C",
                            "explanations" : [
                                "Incorrect: You can do this with a custom event, but that’s more work than necessary.",
                                "Incorrect: The goal is to validate the data before submitting the form.",
                                "Correct: The required attribute ensures that a field contains a value before being submitted.",
                                "Incorrect: A label would be informative but doesn’t guarantee that all the required fields are populated before submitting."
                            ]
                        },
                        {
                            "question" : "[This question is missing an answer] How can you ensure that all necessary fields are populated before a form can be submitted?",
                            "answers" : [
                                "Write a JavaScript function to evaluate all the controls on the form for content.",
                                "On the server, evaluate all the controls for data and return an error page for missing content.",
                                "Add the required attribute on each control so that users get a message that the field is required.",
                                "Add a label to the page to let users know which controls they must fill in."
                            ],
                            "correctAnswer" : "0",
                            "explanations" : [
                                "Error: Missing explanation",
                                "Error: Missing explanation",
                                "Error: Missing explanation",
                                "Error: Missing explanation"
                            ]
                        }
                    ]
                },
                {
                    "subchapterName" : "[Chapter 3.2] Validate user input by using JavaScript",
                    "questions" : [
                        {
                            "question" : "Which of the following regular expression characters denote the end of the string?",
                            "answers" : [
                                "$",
                                "%",
                                "^",
                                "&"
                            ],
                            "correctAnswer" : "A",
                            "explanations" : [
                                "Correct: The $ sign denotes the end of the string.",
                                "Incorrect: The % sign doesn’t denote the end of the string.",
                                "Incorrect: The ^ character denotes the start of the string.",
                                "Incorrect: The & character doesn’t denote the end of the string."
                            ]
                        },
                        {
                            "question" : "Which of the following sandbox attributes allows the iFrame to load content from thecontaining HTML document?",
                            "answers" : [
                                "allow-script-execution",
                                "allow-same-origin",
                                "allow-forms",
                                "allow-top-navigation",
                                "allow-top-document"
                            ],
                            "correctAnswer" : "D",
                            "explanations" : [
                                "Incorrect: Allows scripts to run",
                                "Incorrect: Only allows content from the same origin",
                                "Incorrect: Allows forms",
                                "Correct: Allows content from the containing HTML document",
                                "Incorrect: Not a valid option"
                            ]
                        },
                        {
                            "question" : "[This question is missing an answer] Which function should never be used to run JavaScript?",
                            "answers" : [
                                "execute",
                                "JSDynamic",
                                "eval",
                                "evaluate"
                            ],
                            "correctAnswer" : "0",
                            "explanations" : [
                                "Error: Missing explanation",
                                "Error: Missing explanation",
                                "Error: Missing explanation",
                                "Error: Missing explanation"
                            ]
                        }
                    ]
                },
                {
                    "subchapterName" : "[Chapter 3.3] Consume data",
                    "questions" : [
                        {
                            "question" : "Which of the following is a valid JSON string?",
                            "answers" : [
                                "{firstName, Rick, lastname, Delorme, hairColor, brown, eyeColor, brown}",
                                "{firstName: Rick; lastname: Delorme; hairColor: brown; eyeColor: brown}",
                                "{firstName: “Rick”; lastname: “Delorme”; hairColor: “brown”; eyeColor: “brown”}",
                                "{firstName: “Rick”, lastname: “Delorme”, hairColor: “brown”, eyeColor: “brown”}"
                            ],
                            "correctAnswer" : "D",
                            "explanations" : [
                                "Incorrect: A JSON string isn’t just a comma-separated list.",
                                "Incorrect: A JSON string isn’t a list delimited by semi-colons.",
                                "Incorrect: A JSON string isn’t a list delimited by semi-colons.",
                                "Correct: A JSON string is a series of name/value pairs where the name of the property is followed by a colon and a quoted string. Multiple name value pairs are comma separated."
                            ]
                        },
                        {
                            "question" : "With the XMLHttpRequest object, which of the following properties provides the response in a human readable format?",
                            "answers" : [
                                "Response",
                                "responseBody",
                                "responseText",
                                "responseXML"
                            ],
                            "correctAnswer" : "C",
                            "explanations" : [
                                "Incorrect: Response doesn’t provide any direct information.",
                                "Incorrect: responseBody provides the result in binary format.",
                                "Correct: responseText provides the result as text that’s human readable.",
                                "Incorrect: responseXML isn’t a valid property."
                            ]
                        },
                        {
                            "question" : "At which stage during an XMLHttpRequest are user credentials sent to the server?",
                            "answers" : [
                                "When the connection is opened",
                                "When the request is sent",
                                "When the ready state is complete",
                                "When the server sends a security response requesting the credentials"
                            ],
                            "correctAnswer" : "D",
                            "explanations" : [
                                "Incorrect: Credentials aren’t passed with the open method.",
                                "Incorrect: Credentials aren’t passed with the request method.",
                                "Incorrect: Ready state is a property that indicates the current state of the connection.",
                                "Correct: Credentials are passed only if the server requests them with a return code 401."
                            ]
                        }
                    ]
                },
                {
                    "subchapterName" : "[Chapter 3.4] Serialize, deserialize, and transmit data",
                    "questions" : [
                        {
                            "question" : "Which of the following code lines is the correct way create an object from a JSON string stored in a variable called jsonString?",
                            "answers" : [
                                "var o = JSON.split(jsonString);",
                                "var o = JSON.stringify(jsonString);",
                                "var o = JSON.parse(jsonString);",
                                "var 0 = JSON.join(jsonString);"
                            ],
                            "correctAnswer" : "C",
                            "explanations" : [
                                "Incorrect: This isn’t a valid method on the JSON object.",
                                "Incorrect: This method is used to serialize an object into a JSON string.",
                                "Correct: This method is used to deserialize a JSON string into an object.",
                                "Incorrect: This isn’t a valid method on the JSON object."
                            ]
                        },
                        {
                            "question" : "Which of the following code lines allows an XMLHttpRequest to return binary data?",
                            "answers" : [
                                "request.responseType = ‘binary’;",
                                "request.responseType = ‘image/jpg’;",
                                "response.type = ‘blob’;",
                                "request.responseType = ‘blob’;"
                            ],
                            "correctAnswer" : "D",
                            "explanations" : [
                                "Incorrect: ‘binary’ isn’t a valid option for the responseType",
                                "Incorrect: ‘image/jpg’ isn’t a valid option for the responseType.",
                                "Incorrect: type isn’t a valid property name on the response object.",
                                "Correct: The response object’s responseType property must be set to ‘blob’."
                            ]
                        },
                        {
                            "question" : "How do you control what’s sent to the server when submitting a form?",
                            "answers" : [
                                "Add a submit button to the form",
                                "Handle the submit event of the form.",
                                "Specify the action attribute of the form element.",
                                "Ensure that all elements on the form have a name."
                            ],
                            "correctAnswer" : "B",
                            "explanations" : [
                                "Incorrect: A submit button submits the entire form to the server by default.",
                                "Correct: Handling the submit event on the form allows you to intercept the form before submitting and perform custom actions with it.",
                                "Incorrect: The action attribute indicates what server-side page the form should submit.",
                                "Incorrect: All elements on the form should have a name to use jQuery to serialize them. However, this has no effect on form submission."
                            ]
                        }
                    ]
                }
            ]
        },
        {
            "chapterName" : "[Chapter 4] Use CSS3 in applications",
            "subchapters" : [
                {
                    "subchapterName" : "[Chapter 4.1] Style HTML text properties",
                    "questions" : [
                        {
                            "question" : "Which of the following CSS would not change the appearance of text?",
                            "answers" : [
                                "font-style: italic;",
                                "font-weight: heavy;",
                                "font: bolder 12px arial;",
                                "color: green;"
                            ],
                            "correctAnswer" : "B",
                            "explanations" : [
                                "Incorrect: font-style: italic will display the text with italics.",
                                "Correct: font-weight: heavy; heavy is not a valid option for font-weight.",
                                "Incorrect: font: bolder 12px arial; is a valid shorthand for setting font attributes.",
                                "Incorrect: color: green; is a valid way to change the color of the text to green."
                            ]
                        },
                        {
                            "question" : "Which of the following aligns text to the full width of the available box?",
                            "answers" : [
                                "right",
                                "full",
                                "center",
                                "justify"
                            ],
                            "correctAnswer" : "D",
                            "explanations" : [
                                "Incorrect: Right will align all the text to the right side of the box",
                                "Incorrect: Full is not a valid option.",
                                "Incorrect: Center will align the text along the center of the box.",
                                "Correct: Justify will align the text such that each line takes up the width of the box."
                            ]
                        },
                        {
                            "question" : "Which of the following is a way to configure the amount of space between words?",
                            "answers" : [
                                "word-margin",
                                "letter-margin",
                                "word-spacing",
                                "word-padding"
                            ],
                            "correctAnswer" : "C",
                            "explanations" : [
                                "Incorrect: word-margin is not a valid option",
                                "Incorrect: letter-margin is not a valid option.",
                                "Correct: word-spacing will set the amount of space between words.",
                                "Incorrect: word-padding is not a valid option."
                            ]
                        }
                    ]
                },
                {
                    "subchapterName" : "[Chapter 4.2] Style HTML box properties",
                    "questions" : [
                        {
                            "question" : "Which of the following is not a valid way to alter the size of an element?",
                            "answers" : [
                                "div{height: 50px; width: 50%;}",
                                "div{height: 50px; width: 50px;}",
                                "div{height: 50cm; width: 50px;}",
                                "div{height: 50ft; width: 50ft;} "
                            ],
                            "correctAnswer" : "D",
                            "explanations" : [
                                "Incorrect: div{height: 50px; width: 50%;} is valid.",
                                "Incorrect: div{height: 50px; width: 50px;} is valid.",
                                "Incorrect: div{height: 50cm; width: 50px; is valid.",
                                "Correct: div{height: 50ft; width: 50ft;} ft is not a valid unit of measurement."
                            ]
                        },
                        {
                            "question" : "Which of the following will successfully style the border of a div element?",
                            "answers" : [
                                "border-top: 5px dotted blue; border-right: 5px solid green; border-left: 3px dashed red; border-bottom: 10px double black;",
                                "border-sides: 5px solid green;",
                                "border-all: 1px solid black;",
                                "border: full red;"
                            ],
                            "correctAnswer" : "A",
                            "explanations" : [
                                "Correct: Each side will be styled differently and the syntax is correct.",
                                "Incorrect: border-sides is not a valid property.",
                                "Incorrect: border-all is not a valid property.",
                                "Incorrect: The syntax is not correct to set the border properties with the shorthand. Full is not a valid value."
                            ]
                        },
                        {
                            "question" : "When looking from the outside edge of an HTML element and moving to the inside edge, what order does the padding, margin, and border occur in?",
                            "answers" : [
                                "padding, border, margin",
                                "margin, border, padding",
                                "border, padding, margin",
                                "margin, padding, border"
                            ],
                            "correctAnswer" : "B",
                            "explanations" : [
                                "Incorrect: This is not the correct sequence.",
                                "Correct: Margin, border, padding is the correct sequence.",
                                "Incorrect: This is not the correct sequence.",
                                "Incorrect: This is not the correct sequence."
                            ]
                        },
                        {
                            "question" : "Which of the following statements will apply a box shadow to the right and bottom edge of a div element?",
                            "answers" : [
                                "box-shadow: gray 5px 5px;",
                                "box-shadow: gray -5px 5px;",
                                "box-shadow: gray 5px -5px;",
                                "box-shadow: gray -5px -5px;"
                            ],
                            "correctAnswer" : "A",
                            "explanations" : [
                                "Correct: box-shadow: gray 5px 5px; will apply a box shadow to the right and bottom edge of a div element.",
                                "Incorrect: The shadow will be on the left and bottom.",
                                "Incorrect: The shadow will be on the top and right.",
                                "Incorrect: The shadow will be the top and left."
                            ]
                        },
                        {
                            "question" : "Which of the following will place an element relative to the browser window?",
                            "answers" : [
                                "absolute",
                                "fixed",
                                "relative"
                            ],
                            "correctAnswer" : "B",
                            "explanations" : [
                                "Incorrect: Absolute positioning is relative to the parent.",
                                "Correct: Fixed positioning is the correct answer.",
                                "Incorrect: Relative positioning is relative to the elements in normal flow."
                            ]
                        }
                    ]
                },
                {
                    "subchapterName" : "[Chapter 4.3] Create a flexible content layout",
                    "questions" : [
                        {
                            "question" : "Which of the following layouts is based on columns and rows?",
                            "answers" : [
                                "flexbox",
                                "multi-column",
                                "grid layout",
                                "exclusions"
                            ],
                            "correctAnswer" : "C",
                            "explanations" : [
                                "Incorrect: Flexbox lays elements out in a flow direction.",
                                "Incorrect: Multi-column lays elements out only in columns.",
                                "Correct: Grid layout allows layout in rows and columns.",
                                "Incorrect: Exclusions do not deal with the layout in rows and columns."
                            ]
                        },
                        {
                            "question" : "Which of the following is false about a flexbox layout?",
                            "answers" : [
                                "The direction of the elements in a flexbox can be controlled with the flex-direction property.",
                                "The elements layout can be configured along the layout axis using the flex-pack property.",
                                "Elements in a flexbox are called flexbox items.",
                                "Elements in a flexbox can be set into rows and columns."
                            ],
                            "correctAnswer" : "D",
                            "explanations" : [
                                "Incorrect: This is a true statement.",
                                "Incorrect: This is a true statement.",
                                "Incorrect: This is a true statement.",
                                "Correct: Grid layouts can be set into rows and columns."
                            ]
                        },
                        {
                            "question" : "Which of the following property values for wrap-flow will allow the text to wrap along both sides of an element?",
                            "answers" : [
                                "both",
                                "all",
                                "left and right",
                                "cross"
                            ],
                            "correctAnswer" : "A",
                            "explanations" : [
                                "Correct: both will allow the text to wrap along both sides of an element.",
                                "Incorrect: all is not a valid value.",
                                "Incorrect: left and right is not a valid value.",
                                "Incorrect: cross is not a valid value."
                            ]
                        }
                    ]
                },
                {
                    "subchapterName" : "[Chapter 4.4] Create an animated and adaptive UI",
                    "questions" : [
                        {
                            "question" : "Which of the following statements will hide an element but keep its space in the overall flow?",
                            "answers" : [
                                "display: none;",
                                "visibility: hidden;",
                                "display: inline;",
                                "visibility: visible;"
                            ],
                            "correctAnswer" : "A",
                            "explanations" : [
                                "Correct: display:none; will hide an element but keep its space in the overall flow.",
                                "Incorrect: visibility: hidden; will maintain the element in the normal flow.",
                                "Incorrect: display: inline; will show the element in the normal flow.",
                                "Incorrect: visibility: visible; will show the element in the normal flow."
                            ]
                        },
                        {
                            "question" : "Media queries are best suited for what purpose?",
                            "answers" : [
                                "Setting the priority of style sheet references in a webpage",
                                "Creating a responsive user interface based on the screen size of the view port",
                                "Modifying the view port to properly fit the content of the page",
                                "Connecting to third-party style sheets to alter the layout"
                            ],
                            "correctAnswer" : "B",
                            "explanations" : [
                                "Incorrect: Media queries are not best suited for setting the priority of style sheet references in a webpage.",
                                "Correct: Media queries are best suited for creating a responsive user interface based on the screen size of the view port.",
                                "Incorrect: Media queries are not best suited for modifying the view port to properly fit the content of the page.",
                                "Incorrect: Media queries are not best suited for connecting to third-party style sheets to alter the layout."
                            ]
                        },
                        {
                            "question" : "Which of the following transition-timing-function properties makes the transition start slow, speed up, then end slow?",
                            "answers" : [
                                "ease",
                                "ease-in",
                                "ease-out",
                                "ease-in-out"
                            ],
                            "correctAnswer" : "A",
                            "explanations" : [
                                "Correct: ease will start slow, speed up and end slow. This is also the default value.",
                                "Incorrect: ease-in will start slow and speed up.",
                                "Incorrect: ease-out will slow near the end.",
                                "Incorrect: ease-in-out will slow at the beginning and at the end."
                            ]
                        }
                    ]
                },
                {
                    "subchapterName" : "[Chapter 4.5] Find elements using CSS selectors and jQuery",
                    "questions" : [
                        {
                            "question" : "Which one of the following is a CSS class selector?",
                            "answers" : [
                                ".code",
                                "#code",
                                "div[code]",
                                ":code"
                            ],
                            "correctAnswer" : "A",
                            "explanations" : [
                                "Correct: .code is a CSS class selector",
                                "Incorrect: #code is an ID selector",
                                "Incorrect: div[code] is an attribute selector",
                                "Incorrect: :code is not a valid statement."
                            ]
                        },
                        {
                            "question" : "Which one of the following is an attribute selector?",
                            "answers" : [
                                ".required",
                                "#required",
                                "input[required]",
                                ":required"
                            ],
                            "correctAnswer" : "C",
                            "explanations" : [
                                "Incorrect: .required is a class selector.",
                                "Incorrect: #required is an ID selector.",
                                "Correct: input[required] is an attribute selector",
                                "Incorrect: :required is a pseudo-class that would be combined with an element selector."
                            ]
                        },
                        {
                            "question" : "Which of the following statements would alter the style of an anchor element when the mouse is moved over it?",
                            "answers" : [
                                "a:link",
                                "a:mouseover",
                                "a:beforeclick",
                                "a:hover"
                            ],
                            "correctAnswer" : "D",
                            "explanations" : [
                                "Incorrect: a:link would specify the styles for an unvisited hyperlink.",
                                "Incorrect: a:mouseover is not a valid pseudo-class.",
                                "Incorrect: a:beforeclick is not a valid pseudo-class",
                                "Correct: a:hover will change the style when the user moves the mouse over the link."
                            ]
                        }
                    ]
                },
                {
                    "subchapterName" : "[Chapter 4.6] Structure a CSS file by using CSS selectors",
                    "questions" : [
                        {
                            "question" : "Referencing the HTML listing, how would you style only the first paragraph inside the footer element to have a smaller font size?",
                            "code" : [
                                "<html>",
                                "<body>",
                                "    <div>",
                                "        <hgroup>",
                                "            <h1></h1>",
                                "            <h2></h2>",
                                "        </hgroup>",
                                "    </div>",
                                "    </div>",
                                "        <section>",
                                "            <article>",
                                "                <h1></h1>",
                                "                <p></p>",
                                "                <p></p>",
                                "            </article>",
                                "            <article>",
                                "                <h1></h1>",
                                "                <p></p>",
                                "                <aside></aside>",
                                "                <p></p>",
                                "            </article>",
                                "        </section>",
                                "    </div>",
                                "    <div>",
                                "        <footer>",
                                "            <p></p>",
                                "            <p></p>",
                                "        </footer>",
                                "    </div>",
                                "</body>",
                                "</html>"
                            ],
                            "answers" : [
                                "footer p:first-child { font-size: x-small; }",
                                "footer p.first-child { font-size: x-small; }",
                                "Footer:p:first-child { font-size: x-small; }",
                                "Footer=>p, first-child { font-size: x-small; }"
                            ],
                            "correctAnswer" : "A",
                            "explanations" : [
                                "Correct: This is the correct syntax specifying the first paragraph child of the footer element to have a smaller font.",
                                "Incorrect: The p.firstchild is not the correct syntax. It would need to be p:first-child.",
                                "Incorrect: The colon after the footer is not correct syntax",
                                ". Incorrect: The => notation is not the correct syntax."
                            ]
                        },
                        {
                            "question" : "Referencing the HTML listing, how would you apply a new font to all the H1 elements? In addition, the <h1> elements in an article should be italic.",
                            "answers" : [
                                "h1 { font-family: 'Courier New'; article h1 { font-style:italic; } }",
                                "h1 { font-family: 'Courier New'; } article h1 { font-style:italic; }",
                                "h1 { font-family: 'Courier New'; font-style:italic; } article h1 { font-style:italic; }",
                                "h1 { font-family: 'Courier New'; } article, h1 { font-style: italic; }"
                            ],
                            "correctAnswer" : "B",
                            "explanations" : [
                                "Incorrect: Styles cannot be nested inside each other in this way.",
                                "Correct: It is correct to first specify the H1 style, then specify the H1 styles for H1 elements that are beneath an article element.",
                                "Incorrect: This will make all H1 elements italic.",
                                "Incorrect: This will make all H1 elements italic as the comma after article creates a list of elements to apply the styles to."
                            ]
                        },
                        {
                            "question" : "Referencing the preceding HTML listing, write the CSS code to apply a border to the aside element that is 100 pixels high and 50 pixels wide. In addition, provide a shadow effect and slightly skew the element to the right 5 degrees.",
                            "answers" : [
                                "Show answer."
                            ],
                            "correctAnswer" : "A",
                            "explanations" : [
                                "aside { height: 100px; width: 50px; border: 2px solid black; transform: skew(-5deg); box-shadow: 5px 5px; }"
                            ]
                        }
                    ]
                }
            ]
        }
    ]
}